[{
  "title": "software",
  "name": "software",
  "cnName": "开发",
  "responsibilities": [{
    "enTitle": "Internet Integration",
    "cnTitle": "互联网综合开发",
    "description": [
      "Web / Wechat / HTML5 / App",
      "业务自动处理(查询、限付、提交、支付)",
      "HTML5互动开发",
      "信息推送 / 图文推广"
    ]
  }, {
    "enTitle": "Customer Service Application",
    "cnTitle": "客户服务应用",
    "description": [
      "多媒体呼叫中心",
      "智能客户服务",
      "客户会员 / 储值卡 / 积分 / 营销"
    ]
  }, {
    "enTitle": "Multimedia Application",
    "cnTitle": "多媒体应用集成",
    "description": [
      "多媒体播放技术开发",
      "综合互联网实现综合流程场景(直播、活动、教育等)"
    ]
  }],
  "position": {"translateX": "-100%", "scale": 1},
  "index": 1
}, {
  "title": "design",
  "name": "design",
  "cnName": "设计",
  "responsibilities": [{
    "enTitle": "User Interface & Experience",
    "cnTitle": "UI&UE设计",
    "description": ["Web / Wechat / App / 多媒体 / Banner设计"]
  }, {
    "enTitle": "Graphic Design",
    "cnTitle": "插画&平面设计",
    "description": ["DM / 角色设计 / 活动配置设计"]
  }, {
    "enTitle": "Visual Identity",
    "cnTitle": "VI-视觉识别设计",
    "description": ["Logo设计 / 企业视觉识别设计(VI设计)"]
  }],
  "position": {"translateX": 0, "scale": 1},
  "index": 3
}, {
  "title": "marketing",
  "name": "social-media-marketing",
  "cnName": "运营",
  "responsibilities": [{
    "enTitle": "Platform Operation",
    "cnTitle": "平台运营",
    "description": ["微信、微博等社交平台账户运营维护"]
  }, {
    "enTitle": "Integrated Marketing",
    "cnTitle": "策略咨询",
    "description": ["品牌社交领域策略咨询"]
  }, {
    "enTitle": "Building Wechat Platform",
    "cnTitle": "数据调研",
    "description": ["基于消费者数据挖掘的调研服务"]
  }, {
    "enTitle": "Strategic Consulting",
    "cnTitle": "整合营销",
    "description": ["基于社交网站的数字整合传播"]
  }],
  "position": {"translateX": "100%", "scale": 1},
  "index": 2
}]
